ReadData             INFO in initialize()
EventSelector        INFO reinitialization...
EventSelector        INFO EventSelection with query 
EventSelector        INFO No Events found in any Input Collections
AthenaEventLoopMgr   INFO Setup EventSelector service EventSelector
EventSelector        INFO No Events found in any Input Collections
ReadData             INFO in finalize()
